4079.9718 3 10000
4502.2410 2 1000
4525.9493 2 1000
4584.0314 2 1000
4625.5712 3 10000
4672.5337 3 10000
4698.3352 2 500
4735.4753 3 10000
4808.3596 3 10000
4831.0597 3 10000
4844.6393 3 10000
4917.8797 3 10000
4924.5255 3 10000
8233.8964 3 58686
8282.3921 3 46786
8349.1157 2 1657
8821.8324 3 10000
8954.7086 3 38663
9047.9296 3 12000
9165.1667 3 13000
9802.3840 3 64296
9925.9190 3 60153
9377.3300 1 100
9515.9870 1 200
9687.9800 1 150
9720.8300 1 100
10110.1100 1 80
10841.3100 2 1000
11130.2360 1 375
